<?xml version="1.0" encoding="utf-8"?>
<!-- Generator: Adobe Illustrator 20.0.0, SVG Export Plug-In . SVG Version: 6.00 Build 0)  -->
<svg version="1.1" id="Ebene_1" xmlns="http://www.w3.org/2000/svg" xmlns:xlink="http://www.w3.org/1999/xlink" x="0px" y="0px"
	 viewBox="0 0 108.4 108.3" style="enable-background:new 0 0 108.4 108.3;" xml:space="preserve">
<style type="text/css">
	.st0{clip-path:url(#SVGID_2_);fill:url(#SVGID_3_);}
	.st1{fill:#FFFFFF;}
	.st2{clip-path:url(#SVGID_5_);fill:#FFFFFF;}
</style>
<g>
	<defs>
		<rect id="SVGID_1_" y="-0.1" width="108.4" height="108.4"/>
	</defs>
	<clipPath id="SVGID_2_">
		<use xlink:href="#SVGID_1_"  style="overflow:visible;"/>
	</clipPath>
	
		<linearGradient id="SVGID_3_" gradientUnits="userSpaceOnUse" x1="-3527.0459" y1="521.834" x2="-3526.0459" y2="521.834" gradientTransform="matrix(0 -108.4476 -108.4476 0 56645.8516 -382391.1562)">
		<stop  offset="0" style="stop-color:#4C3E88"/>
		<stop  offset="0.989" style="stop-color:#A51A7F"/>
		<stop  offset="1" style="stop-color:#A51A7F"/>
	</linearGradient>
	<rect y="-0.1" class="st0" width="108.4" height="108.4"/>
</g>
<path class="st1" d="M6.2,5.9h96.1v96.1H6.2V5.9z M5,103.1h98.4V4.7H5V103.1z"/>
<rect x="39.5" y="30.6" class="st1" width="6.6" height="6.6"/>
<rect x="25.3" y="62.8" class="st1" width="7" height="6.9"/>
<rect x="15.5" y="56.6" class="st1" width="7.7" height="7.6"/>
<rect x="16.7" y="43.7" class="st1" width="11.8" height="11.7"/>
<rect x="31" y="35.8" class="st1" width="6.6" height="6.5"/>
<rect x="31" y="45.8" class="st1" width="4.8" height="4.8"/>
<rect x="19.5" y="32.2" class="st1" width="8.9" height="8.8"/>
<rect x="13.4" y="36" class="st1" width="3.1" height="3.1"/>
<rect x="13.3" y="26" class="st1" width="3.7" height="3.7"/>
<g>
	<defs>
		<rect id="SVGID_4_" x="5" y="4.7" width="98.4" height="98.4"/>
	</defs>
	<clipPath id="SVGID_5_">
		<use xlink:href="#SVGID_4_"  style="overflow:visible;"/>
	</clipPath>
	<path class="st2" d="M94.8,65.6c-0.8-3.9-3-6.8-6.9-8.6c-0.8-0.4-1.7-0.6-2.6-1c1-4.2,0.4-8.2-2-12c-2.4-3.8-5.8-6.3-10.3-7.7
		c-3.5-1-7.1-1.1-10.6-0.1c-5.2,1.4-8.9,4.4-11.4,8.8c-0.3-0.1-0.6-0.3-0.8-0.4c-0.9-0.3-1.8-0.7-2.8-0.9c-3.2-0.7-6.3-0.6-9.4,0.5
		c-0.3,0.1-0.6,0.2-0.9,0.3h0v7.4h-7.2v4.8h-5.4v4.8h9.2V71H24v-5.6h-8.5c0,0.2-0.1,0.3-0.1,0.5v2.7c0.2,0.6,0.3,1.2,0.5,1.7
		c1.5,4.4,4.7,7.2,9.6,8.2c1.6,0.3,3.4,0.2,5.1,0.2c16.5,0,33,0,49.5,0c0.3,0,0.6,0,1,0c2.1,0.2,4.2,0,6.2-0.8
		c3.8-1.4,6.2-4,7.4-7.6c0.2-0.6,0.3-1.2,0.5-1.7v-2.6C94.9,65.9,94.9,65.8,94.8,65.6"/>
</g>
</svg>
