<?xml version="1.0" encoding="UTF-8"?>
<svg width="139px" height="38px" viewBox="0 0 139 38" version="1.1" xmlns="http://www.w3.org/2000/svg" xmlns:xlink="http://www.w3.org/1999/xlink">
    <!-- Generator: Sketch 42 (36781) - http://www.bohemiancoding.com/sketch -->
    <title>Checkout Button</title>
    <desc>Created with Sketch.</desc>
    <defs></defs>
    <g id="Page-1" stroke="none" stroke-width="1" fill="none" fill-rule="evenodd">
        <g id="Ticket-Buy-Page" transform="translate(-651.000000, -778.000000)">
            <g id="Checkout-Button" transform="translate(651.000000, 778.000000)">
                <rect id="Rectangle-3" fill="#EA5C37" x="0" y="0" width="139" height="38" rx="4"></rect>
                <text id="CHECKOUT" font-family="Raleway-Medium, Raleway" font-size="20" font-weight="400" fill="#FFFFFF">
                    <tspan x="16" y="25">CHECKOUT</tspan>
                </text>
            </g>
        </g>
    </g>
</svg>