<?xml version="1.0" encoding="UTF-8" standalone="no"?>
<svg width="16px" height="16px" viewBox="0 0 16 16" version="1.1" xmlns="http://www.w3.org/2000/svg" xmlns:xlink="http://www.w3.org/1999/xlink">
    <!-- Generator: Sketch 39.1 (31720) - http://www.bohemiancoding.com/sketch -->
    <title>arrow-forward</title>
    <desc>Created with Sketch.</desc>
    <defs></defs>
    <g id="Page-1" stroke="none" stroke-width="1" fill="none" fill-rule="evenodd">
        <g id="Startseite-Copy" transform="translate(-675.000000, -2255.000000)" fill="#005690">
            <g id="arrow-forward" transform="translate(675.000000, 2255.000000)">
                <polygon id="Shape" points="8 0 6.6 1.4 12.2 7 0 7 0 9 12.2 9 6.6 14.6 8 16 16 8"></polygon>
            </g>
        </g>
    </g>
</svg>