<?xml version="1.0" encoding="utf-8"?>
<!-- Generator: Adobe Illustrator 20.1.0, SVG Export Plug-In . SVG Version: 6.00 Build 0)  -->
<svg version="1.1" id="Layer_1" xmlns="http://www.w3.org/2000/svg" xmlns:xlink="http://www.w3.org/1999/xlink" x="0px" y="0px"
	 viewBox="0 0 931.5 669.8" style="enable-background:new 0 0 931.5 669.8;" xml:space="preserve">
<style type="text/css">
	.st0{fill:#0094D4;}
</style>
<path class="st0" d="M922.4,547.6L530,314.4v-39.7c0-45-48.8-64.6-48.8-64.6c-31.6-15.5-28.8-48.9-28.8-48.9
	c0-39.2,34.9-51.8,50.4-51.8c26.1,0,51.7,14.6,54.4,47.9c4.3,52.3,63.1,39,63.1-3c0-39.7-36-109.3-118-109.3
	c-88.7,0-114.1,87.3-114.1,114.8c0,20.8,3.3,40,16,62c21.7,37.3,65.1,43.1,65.1,67.8v24.7L73,548.4c-39.1,23.2-46.2,72.7-37.7,102.7
	c8.2,29.1,37.2,63.8,89.5,63.8h0.1c0,0,673.2,0,741,0c58.4,0,85.1-33.7,93.3-62.8C967.7,622.1,967.7,575.6,922.4,547.6z
	 M866.8,649.5H125.9c-24.1,0.9-39-33.1-15.2-48.1l386.5-227.2l384.5,226.2C905.6,617.4,892.6,649.4,866.8,649.5z"/>
</svg>
