<?xml version="1.0" encoding="utf-8"?>
<!-- Generator: Adobe Illustrator 20.0.0, SVG Export Plug-In . SVG Version: 6.00 Build 0)  -->
<svg version="1.1" id="Ebene_1" xmlns="http://www.w3.org/2000/svg" xmlns:xlink="http://www.w3.org/1999/xlink" x="0px" y="0px"
	 viewBox="0 0 160 160" style="enable-background:new 0 0 160 160;" xml:space="preserve">
<style type="text/css">
	.st0{fill:#fff;}
</style>
<title>Zeichenfläche 1</title>
<path class="st0" d="M61.3,26.4c6.1,0.7,12.1,2.5,17.5,5.5c1.2,0.7,2.4,1.5,3.6,2.3c1.1-0.8,2.2-1.5,3.5-2.2
	c6.9-3.8,14.7-5.8,22.6-5.8c2.2,0,4.5,0.1,6.7,0.4c8.7,1,16.9,4.5,23.6,10c8.1,6.6,13.4,15.9,15,26.1c1,6,1,12,0,18
	c-2.2,13-8.7,24.4-19.5,33.7l0.7,0.6c1.8,1.4,3.7,2.9,5.4,4.6c4.4,4.2,4.6,11.1,0.5,15.5c-2.1,2.2-4.9,3.4-8,3.5
	c-2.5,0-4.9-0.8-6.9-2.4c-3.9-3.1-7.6-6.2-11.6-9.6c-10.1,4.4-21,6.6-32,6.7c-2.4,0-4.8-0.1-7.2-0.3c-8.6-0.8-17.1-2.9-25-6.3
	c-3.5,3-7.2,6.1-11.1,9.2c-2.1,1.7-4.7,2.7-7.4,2.8c-2,0-3.9-0.6-5.6-1.6c-5.2-3.1-6.9-9.9-3.8-15.1c0.7-1.1,1.5-2.1,2.5-2.9
	c1.7-1.4,3.4-2.8,5-4.1l0.5-0.4C22.8,108.2,17,100,13.5,90.9c-1.1-2.8-1.7-5.8-2-8.8h8.2v6.7h17.4c2.7,4.2,6.1,7.9,10.2,10.8
	c6.9-6.5,13.3-13.6,18.9-21.3c0.7-0.9,1.3-1.9,2-2.8l0.2-0.4c0.2-0.4,0.5-0.7,0.7-1.1c1.1-1.3,1.4-3.1,0.8-4.7
	c-1.6-5.5-1.6-11.4,0-16.9c-6-4.6-10.4-3.8-17.3-3.8V38.3h8.8L61.3,26.4L61.3,26.4z M131.9,78.2c1.1-4.8,1-9.8-0.5-14.5
	c-0.8-2.8-2.2-5.3-4.1-7.5c-3.8-4.3-9-7-14.7-7.7c-1.4-0.2-2.7-0.3-4.1-0.3c-5.6,0-10.7,2.1-15.5,4.6c-6,3.2-11.8,7.6-14.8,13.3
	c4.3-4.8,10.8-9.8,17.4-11.6c0.8,4.2,0.8,8.5,0,12.8c-0.8,3.9-2.1,7.7-3.9,11.3c-2.1,4.6-4.7,8.9-7.7,13c-1.4,1.8-2.9,3.8-4.4,5.6
	c-3.7,4.5-7.4,8.7-10.9,12.3c9,2.2,18.5,2.2,27.5,0c-3.8-4-7.9-8.4-11.8-13.4c5.2-6.2,9.4-13.2,12.2-20.8c2.6,4,5.4,7.8,8.6,11.3
	c2.9,3.2,6,6.4,9,9.5l3.5,3.6C125.5,93.6,130.1,86.6,131.9,78.2z"/>
<rect x="46.6" y="24.2" class="st0" width="10.5" height="10.3"/>
<rect x="24.3" y="74.9" class="st0" width="11.1" height="10.9"/>
<rect x="8.8" y="65.1" class="st0" width="12.1" height="11.9"/>
<rect x="10.7" y="44.8" class="st0" width="18.7" height="18.4"/>
<rect x="33.2" y="32.4" class="st0" width="10.3" height="10.2"/>
<rect x="33.2" y="48.2" class="st0" width="7.6" height="7.5"/>
<rect x="15" y="26.6" class="st0" width="14" height="13.8"/>
<rect x="5.5" y="32.7" class="st0" width="4.9" height="4.8"/>
<rect x="5.4" y="16.9" class="st0" width="5.9" height="5.8"/>
</svg>
