<?xml version="1.0" encoding="utf-8"?>
<!-- Generator: Adobe Illustrator 20.0.0, SVG Export Plug-In . SVG Version: 6.00 Build 0)  -->
<svg version="1.1" id="Ebene_1" xmlns="http://www.w3.org/2000/svg" xmlns:xlink="http://www.w3.org/1999/xlink" x="0px" y="0px"
	 viewBox="0 0 108.4 104.8" style="enable-background:new 0 0 108.4 104.8;" xml:space="preserve">
<style type="text/css">
	.st0{fill:#FFFFFF;}
</style>
<rect x="46" y="12.2" class="st0" width="5.6" height="5.5"/>
<rect x="34.1" y="39.2" class="st0" width="5.9" height="5.8"/>
<rect x="25.8" y="34" class="st0" width="6.5" height="6.4"/>
<rect x="26.8" y="23.2" class="st0" width="10" height="9.8"/>
<rect x="38.8" y="16.5" class="st0" width="5.5" height="5.4"/>
<rect x="38.8" y="25" class="st0" width="4.1" height="4"/>
<rect x="29.1" y="13.5" class="st0" width="7.5" height="7.4"/>
<rect x="24" y="16.7" class="st0" width="2.6" height="2.6"/>
<rect x="24" y="8.3" class="st0" width="3.1" height="3.1"/>
<g>
	<g>
		<path class="st0" d="M33.5,34.4V38l0.1,0.1h3.6c-0.6-1.2-1.2-2.4-1.8-3.7C35.4,34.4,33.5,34.4,33.5,34.4z"/>
	</g>
	<g>
		<path class="st0" d="M74,23.5c0.2-0.8,0.6-1.8,1.2-2.1c1.8-0.9,2.8-2.1,2.6-4.3c1.3-0.1,2.5-0.2,3.9-0.4
			c-1.8,11.6-5.1,22.2-13.5,30.1C70,39.2,72,31.3,74,23.5 M67,54.6c7.9-9.4,13.8-19.8,16.5-31.9c0.6-2.7,1.3-5.4,0.8-8.2h-9.8
			c0.1,0.9,0.3,1.7,0.3,2.4c0.1,1.8-0.4,2.1-2.2,1.8c-1.9-0.4-3.8-0.8-5.8-0.8c-4.7-0.1-9.4-0.1-14.1-0.1v1h-7.2v4.4h-1.7v1l0,0v5.6
			h-3.6c1.5,6,3,12.1,4.4,18c-1.2-1.2-2.4-2.4-3.4-3.7v2.2h-2.8c2.9,4.4,6.3,8.5,9.9,12.3c2.7,2.9,4.2,6.2,4.3,10.1
			c0.1,3.1-2,5.5-5,6c-0.9,0.2-2.3,0.6-2.6,1.2c-0.6,1.3-1.5,1.6-2.6,1.9c-1.7,0.4-1.7,1.5-1.8,2.8l0,0v0.3c0,0.1,0,0.1,0,0.2v0.5
			l0,0c0.1,1.8,6.9,3.3,15.2,3.3c8.4,0,15.2-1.5,15.2-3.4V81c0-0.2,0-0.4,0-0.6c-0.1-1.7-0.7-2.8-2.4-3.3c-0.6-0.2-1.5-0.4-1.7-0.8
			c-0.7-1.4-1.9-1.6-3.3-1.8c-2.2-0.3-3.5-1.9-3.9-3.9c-0.4-2.4-0.3-4.8,0.8-7.1C62.1,60.1,64.6,57.4,67,54.6"/>
	</g>
</g>
</svg>
