<?xml version="1.0" encoding="UTF-8" standalone="no"?>
<svg width="155px" height="146px" viewBox="0 0 155 146" version="1.1" xmlns="http://www.w3.org/2000/svg" xmlns:xlink="http://www.w3.org/1999/xlink">
    <!-- Generator: Sketch 39.1 (31720) - http://www.bohemiancoding.com/sketch -->
    <title>Photos</title>
    <desc>Created with Sketch.</desc>
    <defs>
        <linearGradient x1="50%" y1="0%" x2="50%" y2="100%" id="linearGradient-1">
            <stop stop-color="#008FC3" offset="0%"></stop>
            <stop stop-color="#005690" offset="100%"></stop>
        </linearGradient>
        <rect id="path-2" x="7.06336031" y="6.65943937" width="140.728748" height="132.681121"></rect>
        <mask id="mask-3" maskContentUnits="userSpaceOnUse" maskUnits="objectBoundingBox" x="0" y="0" width="140.728748" height="132.681121" fill="white">
            <use xlink:href="#path-2"></use>
        </mask>
    </defs>
    <g id="Page-1" stroke="none" stroke-width="1" fill="none" fill-rule="evenodd">
        <g id="Startseite-Copy" transform="translate(-1074.000000, -4595.000000)">
            <g id="Photos" transform="translate(1074.000000, 4595.000000)">
                <g id="Rectangle">
                    <rect fill="#FFFFFF" fill-rule="evenodd" x="0" y="0" width="154.855469" height="146"></rect>
                    <use id="Rectangle-3" stroke="url(#linearGradient-1)" mask="url(#mask-3)" stroke-width="4" xlink:href="#path-2"></use>
                </g>
                <text font-family="Raleway-Bold, Raleway" font-size="21" font-weight="bold" fill="#005690">
                    <tspan x="42.2583193" y="109">Photos</tspan>
                </text>
                <g id="icon_camera" transform="translate(55.000000, 40.000000)">
                    <g id="Group">
                        <polygon id="Shape" points="0 0 46 0 46 46 0 46"></polygon>
                        <path d="M18.0166667,20.125 L27.1591667,4.29333333 C25.8175,4.00583333 24.4375,3.83333333 23,3.83333333 C18.4,3.83333333 14.1833333,5.4625 10.8866667,8.14583333 L17.9016667,20.3166667 L18.0166667,20.125 L18.0166667,20.125 Z M41.285,17.25 C39.5216667,11.6533333 35.2475,7.16833333 29.785,5.09833333 L22.77,17.25 L41.285,17.25 L41.285,17.25 Z M41.7833333,19.1666667 L27.4275,19.1666667 L27.9833333,20.125 L37.1066667,35.9375 C40.25,32.5258333 42.1666667,28.0025 42.1666667,23 C42.1666667,21.6775 42.0325,20.4125 41.7833333,19.1666667 L41.7833333,19.1666667 Z M16.3683333,23 L8.89333333,10.0625 C5.76916667,13.4741667 3.83333333,17.9975 3.83333333,23 C3.83333333,24.3225 3.9675,25.5875 4.21666667,26.8333333 L18.5725,26.8333333 L16.3683333,23 L16.3683333,23 Z M4.715,28.75 C6.47833333,34.3466667 10.7525,38.8316667 16.215,40.9016667 L23.23,28.75 L4.715,28.75 L4.715,28.75 Z M26.3158333,28.75 L18.8408333,41.7066667 C20.1825,41.9941667 21.5625,42.1666667 23,42.1666667 C27.6,42.1666667 31.8166667,40.5375 35.1133333,37.8541667 L28.0983333,25.6833333 L26.3158333,28.75 L26.3158333,28.75 Z" id="Shape" fill="url(#linearGradient-1)"></path>
                    </g>
                </g>
            </g>
        </g>
    </g>
</svg>