<?xml version="1.0" encoding="UTF-8"?>
<svg width="57px" height="47px" viewBox="0 0 57 47" version="1.1" xmlns="http://www.w3.org/2000/svg" xmlns:xlink="http://www.w3.org/1999/xlink">
    <defs></defs>
    <g id="Page-1" stroke="none" stroke-width="1" fill="none" fill-rule="evenodd">
        <g id="Die-Schule" transform="translate(-351.000000, -788.000000)" fill="#FFFFFF">
            <g id="Musikschule" transform="translate(151.000000, 682.000000)">
                <g id="school" transform="translate(200.000000, 106.000000)">
                    <path d="M10.3636364,26.6333333 L10.3636364,37.0777778 L28.5,47 L46.6363636,37.0777778 L46.6363636,26.6333333 L28.5,36.5555556 L10.3636364,26.6333333 L10.3636364,26.6333333 Z M28.5,0 L0,15.6666667 L28.5,31.3333333 L51.8181818,18.5388889 L51.8181818,36.5555556 L57,36.5555556 L57,15.6666667 L28.5,0 L28.5,0 Z" id="Shape"></path>
                </g>
            </g>
        </g>
    </g>
</svg>